<?xml version="1.0" encoding="UTF-8"?>
<!-- Generator: Adobe Illustrator 24.1.1, SVG Export Plug-In . SVG Version: 6.00 Build 0)  -->
<svg version="1.1" id="Layer_1" xmlns="http://www.w3.org/2000/svg" xmlns:xlink="http://www.w3.org/1999/xlink" x="0px" y="0px" viewBox="0 0 512 512" style="enable-background:new 0 0 512 512;" xml:space="preserve">
<g>
	<path d="M404.8,287.7c-3.3-7.7-7.1-15.2-11.5-22.3V136.8c0.1-36.2-14.4-71.1-40.2-96.7C327.5,14.3,292.7-0.1,256.4,0   c-36.3-0.1-71.2,14.3-96.8,40.1c-25.7,25.6-40.2,60.5-40.1,96.7v18.7h54.8v-18.7c0-21.8,8.5-42.5,24.1-58   c15.3-15.4,36.2-24.1,58-24c45.2,0.1,82,36.7,82,82v74.9c-24.9-14.8-53.4-22.7-82.4-22.6c-42.8-0.1-83.9,16.9-114.2,47.2   c-30.3,30.3-47.3,71.3-47.2,114.2c-0.1,42.7,16.9,83.8,47.2,114C172.1,494.9,213.2,512,256,512s83.9-17,114.2-47.3   c30.3-30.3,47.3-71.3,47.2-114.1C417.4,328.8,413.1,307.6,404.8,287.7L404.8,287.7z M256,457.1c-58.7,0-106.6-47.8-106.6-106.6   S197.3,244,256,244s106.6,47.7,106.6,106.6C362.6,409.3,314.8,457.1,256,457.1z M301.8,351c0,60.2-90.4,60.2-90.4,0   C211.4,290.7,301.8,290.7,301.8,351z"/>
</g>
</svg>